advanced_methods
…
library(pacman)
p_load("tidytext",
       "textdata",
       "dplyr")

p_load_gh("ropensci/photosearcher")

The most basic textual sentiment analysis is performed by comparing words to a pre-defined dictionary. These dictionaries have been created by other researchers who manually attributed a value to the sentiment of individual word. Today we will look at three dictionaries AFINN, bing and ncr.

First, the AFINN dictionary (Nielsen 2011) ranks words on a scale of -5 to +5. Words negatively ranked are those with a negative associated sentiment and those with a positive rank are associated with a positive sentiment. While the number represents the magnitude of sentiment (e.g., +5 is more positive than +3).

get_sentiments("afinn")

## # A tibble: 2,477 x 2
##    word       value
##    <chr>      <dbl>
##  1 abandon       -2
##  2 abandoned     -2
##  3 abandons      -2
##  4 abducted      -2
##  5 abduction     -2
##  6 abductions    -2
##  7 abhor         -3
##  8 abhorred      -3
##  9 abhorrent     -3
## 10 abhors        -3
## # ... with 2,467 more rows

Second, the bing dictionary Liu et al. ranks word in a binary fashion of either positive of negative.

get_sentiments("bing")

## # A tibble: 6,786 x 2
##    word        sentiment
##    <chr>       <chr>    
##  1 2-faces     negative 
##  2 abnormal    negative 
##  3 abolish     negative 
##  4 abominable  negative 
##  5 abominably  negative 
##  6 abominate   negative 
##  7 abomination negative 
##  8 abort       negative 
##  9 aborted     negative 
## 10 aborts      negative 
## # ... with 6,776 more rows

Third, the ncr dictionary Mohammad and Turney 2010, categories word into different emotions: positive, negative, anger, anticipation, disgust, fear, joy, sadness, surprise, and trust.

get_sentiments("nrc")

## # A tibble: 13,875 x 2
##    word        sentiment
##    <chr>       <chr>    
##  1 abacus      trust    
##  2 abandon     fear     
##  3 abandon     negative 
##  4 abandon     sadness  
##  5 abandoned   anger    
##  6 abandoned   fear     
##  7 abandoned   negative 
##  8 abandoned   sadness  
##  9 abandonment anger    
## 10 abandonment fear     
## # ... with 13,865 more rows
…
